Stage,Question,Engagement Element,Employee Driver,-2,-1,0,1,2
5 months,"So it's been 4 months, how do you feel? (Anchor Question Mandatory)",,,No,,,,Yes
5 months,Do you have clarity on the priorities and expectations from your assignment?,General Insight,General Insight,,No,,Yes,
5 months,Do you have a buddy at work who is helping you assimilate?,General Insight,General Insight,,No,,Yes,
5 months,Do you have the information and resources to get the basics right?,General Insight,General Insight,,No,,Yes,
5 months,Is there anything you wish you were told on the first day at work?,Crowdsource ideas,Crowdsource ideas,,,,,
5 months,What are some new capabilities that you would like to develop through the upcoming rotations?,Crowdsource ideas,Crowdsource ideas,,,,,